…
    ## Rows: 4870 Columns: 30
    ## ── Column specification ────────────────────────────────────────────────────────
    ## Delimiter: ","
    ## chr (10): job_city, job_industry, job_type, job_ownership, job_req_min_exper...
    ## dbl (20): job_ad_id, job_fed_contractor, job_equal_opp_employer, job_req_any...
    ## 
    ## ℹ Use `spec()` to retrieve the full column specification for this data.
    ## ℹ Specify the column types or set `show_col_types = FALSE` to quiet this message.

``` r
resume
```

    ## # A tibble: 4,870 × 30
    ##    job_ad_id job_city job_indu…¹ job_t…² job_f…³ job_e…⁴ job_o…⁵ job_r…⁶ job_r…⁷
    ##        <dbl> <chr>    <chr>      <chr>     <dbl>   <dbl> <chr>     <dbl>   <dbl>
    ##  1       384 Chicago  manufactu… superv…      NA       1 unknown       1       0
    ##  2       384 Chicago  manufactu… superv…      NA       1 unknown       1       0
    ##  3       384 Chicago  manufactu… superv…      NA       1 unknown       1       0
    ##  4       384 Chicago  manufactu… superv…      NA       1 unknown       1       0
    ##  5       385 Chicago  other_ser… secret…       0       1 nonpro…       1       0
    ##  6       386 Chicago  wholesale… sales_…       0       1 private       0       0
    ##  7       386 Chicago  wholesale… sales_…       0       1 private       0       0
    ##  8       385 Chicago  other_ser… secret…       0       1 nonpro…       1       0
    ##  9       386 Chicago  wholesale… sales_…       0       1 private       0       0
    ## 10       386 Chicago  wholesale… sales_…       0       1 private       0       0
    ## # … with 4,860 more rows, 21 more variables: job_req_education <dbl>,
    ## #   job_req_min_experience <chr>, job_req_computer <dbl>,
    ## #   job_req_organization <dbl>, job_req_school <chr>, received_callback <dbl>,
    ## #   firstname <chr>, race <chr>, gender <chr>, years_college <dbl>,
    ## #   college_degree <dbl>, honors <dbl>, worked_during_school <dbl>,
    ## #   years_experience <dbl>, computer_skills <dbl>, special_skills <dbl>,
    ## #   volunteer <dbl>, military <dbl>, employment_holes <dbl>, …
…
